{"page":"1","per_page":15,"pages":50,"total":750,"shots":[{"id":1743881,"title":"Bizcards 2014","description":"\u003Cp\u003EIm running out of my old ones, so Im playing around with ideas for new cards.\u003C/p\u003E","height":600,"width":800,"likes_count":295,"comments_count":16,"rebounds_count":0,"url":"http://dribbble.com/shots/1743881-Bizcards-2014","short_url":"http://drbl.in/muWj","views_count":2165,"rebound_source_id":null,"image_url":"https://d13yacurqjgara.cloudfront.net/users/78594/screenshots/1743881/bizcard.png","image_teaser_url":"https://d13yacurqjgara.cloudfront.net/users/78594/screenshots/1743881/bizcard_teaser.png","image_400_url":"https://d13yacurqjgara.cloudfront.net/users/78594/screenshots/1743881/bizcard_1x.png","player":{"id":78594,"name":"Jonas","location":"Berlin","followers_count":7834,"draftees_count":9,"likes_count":44235,"likes_received_count":31766,"comments_count":1793,"comments_received_count":2194,"rebounds_count":12,"rebounds_received_count":39,"url":"http://dribbble.com/jonassoeder","avatar_url":"https://d13yacurqjgara.cloudfront.net/users/78594/avatars/normal/9e77748fa6c72a4258eb9b078fa73de6.png?1411401725","username":"jonassoeder","twitter_screen_name":"jonassoeder","website_url":"http://www.jonassoeder.de","drafted_by_player_id":31081,"shots_count":144,"following_count":947,"created_at":"2011/11/25 04:39:38 -0500"},"created_at":"2014/09/28 18:33:55 -0400"},{"id":1743791,"title":"Sneak Peek","description":"\u003Cp\u003EAlmost done with this print! Here's a peek of BMO :D Critiques always appreciated. \u003C/p\u003E\n\n\u003Cp\u003EDrop your email \u003Ca href=\"http://mad.ly/signups/89206/join\" rel=\"nofollow\"\u003Ehere\u003C/a\u003E if you want to know when they are printed.\u003C/p\u003E","height":600,"width":800,"likes_count":265,"comments_count":23,"rebounds_count":0,"url":"http://dribbble.com/shots/1743791-Sneak-Peek","short_url":"http://drbl.in/muUx","views_count":2325,"rebound_source_id":1735661,"image_url":"https://d13yacurqjgara.cloudfront.net/users/255/screenshots/1743791/bmo.png","image_teaser_url":"https://d13yacurqjgara.cloudfront.net/users/255/screenshots/1743791/bmo_teaser.png","image_400_url":"https://d13yacurqjgara.cloudfront.net/users/255/screenshots/1743791/bmo_1x.png","player":{"id":255,"name":"Rogie King","location":"Helena, Montana","followers_count":30107,"draftees_count":34,"likes_count":11112,"likes_received_count":78601,"comments_count":5422,"comments_received_count":9740,"rebounds_count":80,"rebounds_received_count":408,"url":"http://dribbble.com/rogie","avatar_url":"https://d13yacurqjgara.cloudfront.net/users/255/avatars/normal/avatar.png?1395676667","username":"rogie","twitter_screen_name":"rogie","website_url":"http://rog.ie","drafted_by_player_id":171,"shots_count":293,"following_count":1570,"created_at":"2009/12/15 19:13:41 -0500"},"created_at":"2014/09/28 16:14:37 -0400"},{"id":1744282,"title":"10k and counting...","description":"\u003Cp\u003EHello Dribbblers.\u003C/p\u003E\n\n\u003Cp\u003EWe've recently passed the magic 10K number of followers and it's time to stop the ball rolling for a bit and say THANK YOU DRIBBBLE COMMUNITY from the bottom of our hearts for all your comments, suggestions, likes, rebounds and follows. All of our followers and all the other amazing creatives have inspired us to push our boundaries to a level we thought we'll never reach - so every shot that you like is there because of you guys.\u003C/p\u003E\n\n\u003Cp\u003EWe also want to thank @[39:Dribbble] for shaping our business into what it is today and turning our lives around.\u003C/p\u003E\n\n\u003Cp\u003EAt this moment we're working on a couple of interesting projects (FINALLY our own site among others) and, as always, are looking forward hearing your thoughts soon.\u003C/p\u003E\n\n\u003Cp\u003EThank you all!\n\u003Cbr /\u003E--\n\u003Cbr /\u003E\u003Cstrong\u003E\u003Ca href=\"https://www.facebook.com/pages/Kreativa-Studio/121917858691\" rel=\"nofollow\"\u003EFacebook\u003C/a\u003E - \u003Ca href=\"https://twitter.com/KreativaStudio\" rel=\"nofollow\"\u003ETwitter\u003C/a\u003E - \u003Ca href=\"https://plus.google.com/b/102175751449707929798/+KreativastudioHr1/posts\" rel=\"nofollow\"\u003EGoogle +\u003C/a\u003E\u003C/strong\u003E\u003C/p\u003E","height":600,"width":800,"likes_count":216,"comments_count":18,"rebounds_count":0,"url":"http://dribbble.com/shots/1744282-10k-and-counting","short_url":"http://drbl.in/mvdU","views_count":2128,"rebound_source_id":null,"image_url":"https://d13yacurqjgara.cloudfront.net/users/34556/screenshots/1744282/10k.gif","image_teaser_url":"https://d13yacurqjgara.cloudfront.net/users/34556/screenshots/1744282/10k_teaser.gif","image_400_url":"https://d13yacurqjgara.cloudfront.net/users/34556/screenshots/1744282/10k_1x.gif","player":{"id":34556,"name":"Kreativa Studio","location":"Europe / Croatia","followers_count":10098,"draftees_count":10,"likes_count":2176,"likes_received_count":30495,"comments_count":1132,"comments_received_count":1576,"rebounds_count":4,"rebounds_received_count":56,"url":"http://dribbble.com/KreativaStudio","avatar_url":"https://d13yacurqjgara.cloudfront.net/users/34556/avatars/normal/ks.jpg?1382344350","username":"KreativaStudio","twitter_screen_name":"KreativaStudio","website_url":"http://www.kreativa-studio.hr","drafted_by_player_id":null,"shots_count":111,"following_count":794,"created_at":"2011/05/12 07:52:58 -0400"},"created_at":"2014/09/29 04:43:04 -0400"},{"id":1744198,"title":"SF Real Estate site","description":"\u003Cp\u003EPlayed around with few little site interactions over the weekend, here are some raw results. Tips, ideas or any feedback are always welcomed. :) \n\u003Cbr /\u003EHappy monday yall!\u003C/p\u003E\n\n\u003Cp\u003EI \u003Ca href=\"http://twitter.com/lobanovskiy\" rel=\"nofollow\"\u003Etweet\u003C/a\u003E \u0026amp;  \u003Ca href=\"http://instagram.com/lobanovskiy\" rel=\"nofollow\"\u003Einstagram\u003C/a\u003E\u003C/p\u003E","height":600,"width":800,"likes_count":218,"comments_count":13,"rebounds_count":0,"url":"http://dribbble.com/shots/1744198-SF-Real-Estate-site","short_url":"http://drbl.in/mvco","views_count":2771,"rebound_source_id":null,"image_url":"https://d13yacurqjgara.cloudfront.net/users/14268/screenshots/1744198/real800.gif","image_teaser_url":"https://d13yacurqjgara.cloudfront.net/users/14268/screenshots/1744198/real800_teaser.gif","image_400_url":"https://d13yacurqjgara.cloudfront.net/users/14268/screenshots/1744198/real800_1x.gif","player":{"id":14268,"name":"Eddie Lobanovskiy","location":"Sarasota, FL","followers_count":37210,"draftees_count":13,"likes_count":2789,"likes_received_count":111505,"comments_count":2194,"comments_received_count":6952,"rebounds_count":25,"rebounds_received_count":72,"url":"http://dribbble.com/lobanovskiy","avatar_url":"https://d13yacurqjgara.cloudfront.net/users/14268/avatars/normal/me.jpg?1383933441","username":"lobanovskiy","twitter_screen_name":"lobanovskiy","website_url":"http://unfold.co","drafted_by_player_id":6281,"shots_count":171,"following_count":611,"created_at":"2011/01/27 19:54:44 -0500"},"created_at":"2014/09/29 03:36:23 -0400"},{"id":1744370,"title":"Dashboard","description":"\u003Cp\u003EWorking on our API Dashboard\n\u003Cbr /\u003EDon't forget to check the real pixels\u003C/p\u003E","height":600,"width":800,"likes_count":204,"comments_count":9,"rebounds_count":0,"url":"http://dribbble.com/shots/1744370-Dashboard","short_url":"http://drbl.in/mvfE","views_count":2194,"rebound_source_id":null,"image_url":"https://d13yacurqjgara.cloudfront.net/users/29591/screenshots/1744370/dashboard.jpg","image_teaser_url":"https://d13yacurqjgara.cloudfront.net/users/29591/screenshots/1744370/dashboard_teaser.jpg","image_400_url":"https://d13yacurqjgara.cloudfront.net/users/29591/screenshots/1744370/dashboard_1x.jpg","player":{"id":29591,"name":"buatoom","location":"Bangkok, Thailand","followers_count":7242,"draftees_count":8,"likes_count":2743,"likes_received_count":25413,"comments_count":1399,"comments_received_count":1398,"rebounds_count":10,"rebounds_received_count":38,"url":"http://dribbble.com/buatoom","avatar_url":"https://d13yacurqjgara.cloudfront.net/users/29591/avatars/original/Screen%20Shot%202555-01-16%20at%2011.24.04%20AM.png?1326687883","username":"buatoom","twitter_screen_name":"buatoom","website_url":"http://buatoom.com","drafted_by_player_id":3080,"shots_count":99,"following_count":188,"created_at":"2011/04/21 02:33:29 -0400"},"created_at":"2014/09/29 06:04:40 -0400"},{"id":1744355,"title":"Apple watch Taasky creating","description":"\u003Cp\u003ENext part of Taasky Apple Watch concept. Process of creating new task after long tap.\u003C/p\u003E","height":600,"width":800,"likes_count":150,"comments_count":10,"rebounds_count":0,"url":"http://dribbble.com/shots/1744355-Apple-watch-Taasky-creating","short_url":"http://drbl.in/mvfp","views_count":1339,"rebound_source_id":null,"image_url":"https://d13yacurqjgara.cloudfront.net/users/149817/screenshots/1744355/animacia_listening.gif","image_teaser_url":"https://d13yacurqjgara.cloudfront.net/users/149817/screenshots/1744355/animacia_listening_teaser.gif","image_400_url":"https://d13yacurqjgara.cloudfront.net/users/149817/screenshots/1744355/animacia_listening_1x.gif","player":{"id":149817,"name":"Jakub Antal\u00edk","location":"Zurich","followers_count":7806,"draftees_count":7,"likes_count":663,"likes_received_count":20310,"comments_count":84,"comments_received_count":975,"rebounds_count":0,"rebounds_received_count":1,"url":"http://dribbble.com/antalik","avatar_url":"https://d13yacurqjgara.cloudfront.net/users/149817/avatars/normal/fb4.jpg?1359846688","username":"antalik","twitter_screen_name":"Jakubantalik","website_url":"http://scrapeapps.com","drafted_by_player_id":31536,"shots_count":47,"following_count":363,"created_at":"2012/05/18 15:02:24 -0400"},"created_at":"2014/09/29 05:52:09 -0400"},{"id":1744178,"title":"Fire","description":null,"height":300,"width":400,"likes_count":149,"comments_count":7,"rebounds_count":0,"url":"http://dribbble.com/shots/1744178-Fire","short_url":"http://drbl.in/mvbU","views_count":1153,"rebound_source_id":null,"image_url":"https://d13yacurqjgara.cloudfront.net/users/60166/screenshots/1744178/fire.jpg","image_teaser_url":"https://d13yacurqjgara.cloudfront.net/users/60166/screenshots/1744178/fire_teaser.jpg","player":{"id":60166,"name":"Yoga Perdana","location":"Indonesia","followers_count":13470,"draftees_count":5,"likes_count":8368,"likes_received_count":44771,"comments_count":1911,"comments_received_count":1930,"rebounds_count":4,"rebounds_received_count":13,"url":"http://dribbble.com/yoga","avatar_url":"https://d13yacurqjgara.cloudfront.net/users/60166/avatars/normal/yogaLogo.png?1390870645","username":"yoga","twitter_screen_name":"yoga7","website_url":"http://yogaportfolio.tumblr.com","drafted_by_player_id":32388,"shots_count":98,"following_count":1056,"created_at":"2011/09/07 07:10:00 -0400"},"created_at":"2014/09/29 03:01:56 -0400"},{"id":1744887,"title":"Sauce","description":"\u003Cp\u003EMaking some saucy type \u003C/p\u003E","height":600,"width":800,"likes_count":122,"comments_count":15,"rebounds_count":0,"url":"http://dribbble.com/shots/1744887-Sauce","short_url":"http://drbl.in/mvpB","views_count":324,"rebound_source_id":null,"image_url":"https://d13yacurqjgara.cloudfront.net/users/31752/screenshots/1744887/sauce.png","image_teaser_url":"https://d13yacurqjgara.cloudfront.net/users/31752/screenshots/1744887/sauce_teaser.png","image_400_url":"https://d13yacurqjgara.cloudfront.net/users/31752/screenshots/1744887/sauce_1x.png","player":{"id":31752,"name":"Nick Slater","location":"Palo Alto, Ca","followers_count":24637,"draftees_count":13,"likes_count":41714,"likes_received_count":143977,"comments_count":7302,"comments_received_count":11400,"rebounds_count":220,"rebounds_received_count":317,"url":"http://dribbble.com/slaterdesign","avatar_url":"https://d13yacurqjgara.cloudfront.net/users/31752/avatars/normal/3207fbd57de3dafb59f2c3fc913460a6.png?1410553460","username":"slaterdesign","twitter_screen_name":"slaterdesign","website_url":null,"drafted_by_player_id":2045,"shots_count":482,"following_count":1402,"created_at":"2011/04/30 19:12:27 -0400"},"created_at":"2014/09/29 12:01:40 -0400"},{"id":1744176,"title":"Ghost","description":"\u003Cp\u003EBeen having fun with Destiny and had some spare time to draw the Ghost. Deploy that m*therf*cka!\u003C/p\u003E\n\n\u003Cp\u003EFlat version attached.\n\u003Cbr /\u003EWant to play? My Xbox One Gamertag is \"Black Puma\" :)\u003C/p\u003E","height":600,"width":800,"likes_count":137,"comments_count":16,"rebounds_count":0,"url":"http://dribbble.com/shots/1744176-Ghost","short_url":"http://drbl.in/mvbS","views_count":1492,"rebound_source_id":null,"image_url":"https://d13yacurqjgara.cloudfront.net/users/19849/screenshots/1744176/ghost.gif","image_teaser_url":"https://d13yacurqjgara.cloudfront.net/users/19849/screenshots/1744176/ghost_teaser.gif","image_400_url":"https://d13yacurqjgara.cloudfront.net/users/19849/screenshots/1744176/ghost_1x.gif","player":{"id":19849,"name":"Julian Burford","location":"The Netherlands","followers_count":9879,"draftees_count":10,"likes_count":1615,"likes_received_count":32600,"comments_count":1102,"comments_received_count":2529,"rebounds_count":7,"rebounds_received_count":24,"url":"http://dribbble.com/JulianBurford","avatar_url":"https://d13yacurqjgara.cloudfront.net/users/19849/avatars/normal/me_01.png?1381332056","username":"JulianBurford","twitter_screen_name":"JulianBurford","website_url":"http://www.julianburford.com","drafted_by_player_id":2398,"shots_count":99,"following_count":218,"created_at":"2011/02/24 05:02:58 -0500"},"created_at":"2014/09/29 03:01:14 -0400"},{"id":1744742,"title":"Design Gangs / The Unpaid Interns","description":null,"height":600,"width":800,"likes_count":115,"comments_count":5,"rebounds_count":0,"url":"http://dribbble.com/shots/1744742-Design-Gangs-The-Unpaid-Interns","short_url":"http://drbl.in/mvmM","views_count":437,"rebound_source_id":1744632,"image_url":"https://d13yacurqjgara.cloudfront.net/users/4454/screenshots/1744742/interns.jpg","image_teaser_url":"https://d13yacurqjgara.cloudfront.net/users/4454/screenshots/1744742/interns_teaser.jpg","image_400_url":"https://d13yacurqjgara.cloudfront.net/users/4454/screenshots/1744742/interns_1x.jpg","player":{"id":4454,"name":"Matt Stevens","location":"North Carolina","followers_count":9662,"draftees_count":11,"likes_count":2942,"likes_received_count":58442,"comments_count":406,"comments_received_count":4307,"rebounds_count":321,"rebounds_received_count":332,"url":"http://dribbble.com/MattStevensCLT","avatar_url":"https://d13yacurqjgara.cloudfront.net/users/4454/avatars/normal/twitter_avatar_NSW.jpg?1363700031","username":"MattStevensCLT","twitter_screen_name":"mattstevensclt","website_url":"http://www.hellomattstevens.com/","drafted_by_player_id":234,"shots_count":515,"following_count":483,"created_at":"2010/09/15 10:02:41 -0400"},"created_at":"2014/09/29 10:37:29 -0400"},{"id":1744054,"title":"Mickey \u0026 Friends","description":"\u003Cp\u003EAfter making a Runaway Brain Mickey icon, it seemed like all the other usual characters were possible too! So I drew 'em all! :)\u003C/p\u003E\n\n\u003Cp\u003EAlexa helped a lot with the bills for the ducks and getting the proportions right for Huey, Dewey, and Louie. Look for her Guardians of the Galaxy pixel portraits soon!\u003C/p\u003E","height":600,"width":800,"likes_count":126,"comments_count":8,"rebounds_count":0,"url":"http://dribbble.com/shots/1744054-Mickey-Friends","short_url":"http://drbl.in/muZA","views_count":1591,"rebound_source_id":1742509,"image_url":"https://d13yacurqjgara.cloudfront.net/users/763/screenshots/1744054/disney.png","image_teaser_url":"https://d13yacurqjgara.cloudfront.net/users/763/screenshots/1744054/disney_teaser.png","image_400_url":"https://d13yacurqjgara.cloudfront.net/users/763/screenshots/1744054/disney_1x.png","player":{"id":763,"name":"Louie Mantia","location":"San Francisco","followers_count":12637,"draftees_count":5,"likes_count":2429,"likes_received_count":53456,"comments_count":975,"comments_received_count":4396,"rebounds_count":89,"rebounds_received_count":171,"url":"http://dribbble.com/mantia","avatar_url":"https://d13yacurqjgara.cloudfront.net/users/763/avatars/normal/louie.png?1402616267","username":"mantia","twitter_screen_name":"mantia","website_url":"http://louie.land/","drafted_by_player_id":21,"shots_count":354,"following_count":79,"created_at":"2010/01/22 07:04:26 -0500"},"created_at":"2014/09/28 23:16:44 -0400"},{"id":1744490,"title":"Jumpshare Web App","description":"\u003Cp\u003EHappy to share the work i\u2019ve been doing for the last couple of months. Jumpshare is a real-time file sharing service and i was tasked to give the whole app a design overhaul. \u003C/p\u003E\n\n\u003Cp\u003EThe web version of the app is ready and \u003Ca href=\"http://www.jumpshare.com\" rel=\"nofollow\"\u003E Live Now \u003C/a\u003E Sharing some of it\u2019s pages here which i liked most. You can see the whole app by signing up.\u003C/p\u003E\n\n\u003Cp\u003EThe mobile version is currently in development phase and will be ready in a couple of week.\u003C/p\u003E\n\n\u003Cp\u003EComments and critiques are welcomed. \u003C/p\u003E\n\n\u003Cp\u003EI often tweet \u003Ca href=\"http://www.twitter.com/zee7\" rel=\"nofollow\"\u003E @zee7 \u003C/a\u003E\u003C/p\u003E","height":600,"width":800,"likes_count":130,"comments_count":12,"rebounds_count":0,"url":"http://dribbble.com/shots/1744490-Jumpshare-Web-App","short_url":"http://drbl.in/mvhU","views_count":1458,"rebound_source_id":null,"image_url":"https://d13yacurqjgara.cloudfront.net/users/4826/screenshots/1744490/shot.png","image_teaser_url":"https://d13yacurqjgara.cloudfront.net/users/4826/screenshots/1744490/shot_teaser.png","image_400_url":"https://d13yacurqjgara.cloudfront.net/users/4826/screenshots/1744490/shot_1x.png","player":{"id":4826,"name":"Zulal Ahmad","location":"Pakistan","followers_count":11470,"draftees_count":20,"likes_count":5521,"likes_received_count":33056,"comments_count":706,"comments_received_count":2103,"rebounds_count":16,"rebounds_received_count":17,"url":"http://dribbble.com/zulal","avatar_url":"https://d13yacurqjgara.cloudfront.net/users/4826/avatars/normal/avatar.png?1404223571","username":"zulal","twitter_screen_name":"zee7","website_url":null,"drafted_by_player_id":3511,"shots_count":96,"following_count":798,"created_at":"2010/10/02 15:48:27 -0400"},"created_at":"2014/09/29 07:42:15 -0400"},{"id":1743741,"title":"Number Three","description":"\u003Cp\u003EYet another anniversary.\u003C/p\u003E","height":600,"width":800,"likes_count":127,"comments_count":7,"rebounds_count":0,"url":"http://dribbble.com/shots/1743741-Number-Three","short_url":"http://drbl.in/muTz","views_count":923,"rebound_source_id":null,"image_url":"https://d13yacurqjgara.cloudfront.net/users/172005/screenshots/1743741/140929_3rd_anniversary.png","image_teaser_url":"https://d13yacurqjgara.cloudfront.net/users/172005/screenshots/1743741/140929_3rd_anniversary_teaser.png","image_400_url":"https://d13yacurqjgara.cloudfront.net/users/172005/screenshots/1743741/140929_3rd_anniversary_1x.png","player":{"id":172005,"name":"Angus J","location":"Guangzhou, China","followers_count":26,"draftees_count":1,"likes_count":226,"likes_received_count":246,"comments_count":6,"comments_received_count":25,"rebounds_count":0,"rebounds_received_count":0,"url":"http://dribbble.com/angusjune","avatar_url":"https://d13yacurqjgara.cloudfront.net/users/172005/avatars/normal/hero-small.jpg?1386242819","username":"angusjune","twitter_screen_name":null,"website_url":"http://angusjune.com","drafted_by_player_id":170153,"shots_count":10,"following_count":127,"created_at":"2012/07/05 03:24:14 -0400"},"created_at":"2014/09/28 14:52:14 -0400"},{"id":1744452,"title":"Final Video for Preoday","description":"\u003Cp\u003EHappy to finally share \u003Ca href=\"https://vimeo.com/107451618\" rel=\"nofollow\"\u003Ethe final video\u003C/a\u003E that we created for the fine folks at Preoday! Probably the most fun we've ever had on a video.\u003C/p\u003E\n\n\u003Cp\u003EThis shot is about the history and evolution of making takeaway orders. \u003C/p\u003E\n\n\u003Cp\u003EThis piece was put together with the help of @[21546:Dangerdom], @[398490:Valentin Kirilov], and @[350385:Ray East]. \u003C/p\u003E\n\n\u003Cp\u003EYou can view it  \u003Ca href=\"https://vimeo.com/107451618\" rel=\"nofollow\"\u003Ehere\u003C/a\u003E.\u003C/p\u003E\n\n\u003Cp\u003EAnd also make sure you \u003Cstrong\u003Estroke the L key\u003C/strong\u003E if you enjoyed it!\u003C/p\u003E","height":600,"width":800,"likes_count":105,"comments_count":9,"rebounds_count":0,"url":"http://dribbble.com/shots/1744452-Final-Video-for-Preoday","short_url":"http://drbl.in/mvhi","views_count":528,"rebound_source_id":1736832,"image_url":"https://d13yacurqjgara.cloudfront.net/users/391028/screenshots/1744452/dribbble4_v2.gif","image_teaser_url":"https://d13yacurqjgara.cloudfront.net/users/391028/screenshots/1744452/dribbble4_v2_teaser.gif","image_400_url":"https://d13yacurqjgara.cloudfront.net/users/391028/screenshots/1744452/dribbble4_v2_1x.gif","player":{"id":391028,"name":"Motion Authors","location":"Atlanta, GA","followers_count":2797,"draftees_count":2,"likes_count":1265,"likes_received_count":6620,"comments_count":232,"comments_received_count":344,"rebounds_count":10,"rebounds_received_count":14,"url":"http://dribbble.com/motionauthors","avatar_url":"https://d13yacurqjgara.cloudfront.net/users/391028/avatars/normal/MNA_Logo_DribbbleSquare.jpg?1399132574","username":"motionauthors","twitter_screen_name":"motionauthors","website_url":"http://www.motionauthors.com","drafted_by_player_id":3728,"shots_count":42,"following_count":350,"created_at":"2013/08/23 04:40:34 -0400"},"created_at":"2014/09/29 07:10:58 -0400"},{"id":1744590,"title":"Vignette IX","description":"\u003Cp\u003Ebier making\u003C/p\u003E","height":600,"width":800,"likes_count":96,"comments_count":4,"rebounds_count":0,"url":"http://dribbble.com/shots/1744590-Vignette-IX","short_url":"http://drbl.in/mvjQ","views_count":386,"rebound_source_id":1727650,"image_url":"https://d13yacurqjgara.cloudfront.net/users/5276/screenshots/1744590/beermaking_kendrickkidd.jpg","image_teaser_url":"https://d13yacurqjgara.cloudfront.net/users/5276/screenshots/1744590/beermaking_kendrickkidd_teaser.jpg","image_400_url":"https://d13yacurqjgara.cloudfront.net/users/5276/screenshots/1744590/beermaking_kendrickkidd_1x.jpg","player":{"id":5276,"name":"Kendrick Kidd","location":"Jacksonville, Florida","followers_count":7917,"draftees_count":10,"likes_count":17757,"likes_received_count":39079,"comments_count":857,"comments_received_count":2943,"rebounds_count":131,"rebounds_received_count":136,"url":"http://dribbble.com/KendrickKidd","avatar_url":"https://d13yacurqjgara.cloudfront.net/users/5276/avatars/original/kendrickkidd.jpg?1305130723","username":"KendrickKidd","twitter_screen_name":"KendrickKidd","website_url":"http://www.kendrickkidd.com","drafted_by_player_id":105,"shots_count":260,"following_count":931,"created_at":"2010/10/28 08:07:31 -0400"},"created_at":"2014/09/29 08:58:23 -0400"}]}